{
  "title": "ExamDocumentUploadActions",
  "model": "ExamDocumentUploadActions",
  "searchExpression": "(indexof(object/course/name, '${text}') ge 0 or indexof(object/course/displayCode, '${text}') ge 0 or indexof(object/course/department/abbreviation, '${text}') ge 0 or indexof(object/course/department/name, '${text}') ge 0 or indexof(object/examPeriod/name, '${text}') ge 0 or indexof(owner/alternateName, '${text}') ge 0 or indexof(actionResult/createdBy/alternateName, '${text}') ge 0)",
  "selectable": true,
  "multipleSelect": true,
  "columns": [
    {
      "name": "id",
      "property": "id",
      "hidden": true
    },
    {
      "name": "object/course/displayCode",
      "property": "displayCode",
      "title": "Grades.DisplayCode"
    },
    {
      "name": "object/course/name",
      "property": "title",
      "title": "Grades.CourseName"
    },
    {
      "name": "object/year/alternateName",
      "property": "year",
      "title": "Grades.Year"
    },
    {
      "name": "object/examPeriod/name",
      "property": "examPeriod",
      "title": "Grades.Period"
    },
    {
      "name": "owner/alternateName",
      "property": "owner",
      "title": "Register.Owner"
    },
    {
      "name": "dateCreated",
      "property": "dateCreated",
      "title": "Register.DateCreated",
      "formatter": "DateTimeFormatter",
      "formatString": "short"
    },
    {
      "name": "grades",
      "property": "grades",
      "virtual": true,
      "sortable": false,
      "title": "GradeSubmissions.NormalGrades",
      "className": "text-center",
      "formatters": [
        {
          "formatter": "TemplateFormatter",
          "formatString": "${grades  && grades.length && grades[0].status === 0 ?'<span class=\"text-center\">' + grades[0].totalGrades + '</span>':'-'}"
        }
      ]
    },
    {
      "name": "failedGrades",
      "property": "failedGrades",
      "virtual": true,
      "sortable": false,
      "title": "GradeSubmissions.FailedGrades",
      "className": "text-center",
      "formatters": [
        {
          "formatter": "TemplateFormatter",
          "formatString": "${grades && grades.length && grades[0].status === 5 ? '<span class=\"text-center\">' + grades[0].totalGrades + '</span>': grades && grades.length > 1 ? '<span class=\"text-center\">' + grades[1].totalGrades + '</span>' : '-'}"
        }
      ]
    },
    {
      "name": "actionStatus/alternateName",
      "property": "actionStatus",
      "title": "Grades.Status",
      "hidden": true,
      "formatters": [
        {
          "formatter": "TranslationFormatter",
          "formatString": "ActionStatusTypes.${value}"
        },
        {
          "formatter": "NgClassFormatter",
          "formatOptions": {
            "ngClass": {
              "text-danger": "'${actionStatus}'==='CancelledActionStatus' || '${actionStatus}'==='FailedActionStatus'",
              "text-theme": "'${actionStatus}'==='ActiveActionStatus' || '${actionStatus}'==='PotentialActionStatus'",
              "text-success": "'${actionStatus}'==='CompletedActionStatus'"
            }
          }
        }
      ]
    },
    {
      "name": "actionResult/createdBy/alternateName",
      "property": "createdByAR",
      "title": "GradeSubmissions.CreatedByAR"
    },
    {
      "name": "actionResult/dateCreated",
      "property": "dateCreatedAR",
      "title": "GradeSubmissions.DateCreatedAR",
      "formatter": "DateTimeFormatter",
      "formatString": "short"
    },
    {
      "name": "object/id",
      "property": "examId",
      "hidden": true
    },
    {
      "name": "id",
      "virtual": true,
      "formatter": "ButtonFormatter",
      "formatString": "#/exams/${examId}/dashboard/grading/${id}",
      "className": "text-center",
      "formatOptions": {
        "buttonContent": "<i class=\"far fa-eye text-indigo\"></i>",
        "buttonClass": "btn btn-default"
      }
    }
  ],
  "defaults":{
    "filter": "((object/course/department eq ${currentDepartment}) and (actionStatus/alternateName eq 'CompletedActionStatus') and additionalResult ne null)",
    "orderBy": "dateCreated desc, object/examPeriod desc, object/course/name asc",
    "expand": "grades($filter=status/alternateName ne 'pending';$select=action,status,count(id) as totalGrades;$groupby=action,status)"
  },
  "criteria": [
    {
      "name": "courseName",
      "filter": "(indexof(object/course/name, '${value}') ge 0)",
      "type": "text"
    },
    {
      "name": "displayCode",
      "filter": "(indexof(object/course/displayCode, '${value}') ge 0)",
      "type": "text"
    },
    {
      "name": "actionStatus",
      "filter": "(actionStatus/name eq '${value}')",
      "type": "text"
    },
    {
      "name": "yearId",
      "filter": "(object/year/id eq '${value}')",
      "type": "text"
    },
    {
      "name": "examPeriod",
      "filter": "(object/examPeriod/name eq '${value}')",
      "type": "text"
    },
    {
      "name": "dateCreated",
      "filter": "(dateCreated eq '${value}')",
      "type": "text"
    },
    {
      "name": "pendingExamsDocuments",
      "filter": "(actionStatus/alternateName eq 'ActiveActionStatus')",
      "type": "text"
    },
    {
      "name": "currentYear",
      "filter": "(object/year eq '${currentYear}')",
      "type": "text"
    }
  ]
}
