{
  "id": "declared-student-list",
  "title": "Students.Declared",
  "model": "StudentDeclarations",
  "searchExpression":"indexof(student/studentIdentifier, '${text}') ge 0 or indexof(student/person/familyName, '${text}') ge 0 or indexof(student/person/givenName, '${text}') ge 0 or indexof(student/user/name, '${text}') ge 0 or indexof(student/studyProgram/name, '${text}') ge 0 or indexof(student/studentStatus/name, '${text}') ge 0 or indexof(student/uniqueIdentifier, '${text}') ge 0",
  "selectable": true,
  "multipleSelect": true,
  "columns": [
    {
      "name": "student",
      "property": "student",
      "hidden": true
    },
    {
      "name":"student",
      "placeholder": "Tables.ActionLinkColumn",
      "property": "id",
      "formatter": "ActionLinkFormatter",
      "actions" : [
        {
          "title": "Students.Preview",
          "href": "#/students/${id}/dashboard"
        },
        {
          "title": "Students.PreviewStudyProgram",
          "href": "#/study-programs/${studyProgramId}/preview/general"
        },
        {
          "title": "Students.PreviewStudentCourses",
          "href": "#/students/${id}/dashboard/courses",
          "role": "action"
        },
        {
          "title": "Students.Edit",
          "href": "#/students/${id}/edit",
          "access":[
            {
              "studentStatuses": [
                {"alternateName" : "active"}
              ]
            }
          ]
        },
        {
          "title": "Reports.Print",
          "href": "#/students/${id}/dashboard/overview/(modal:print)",
          "role": "action"
        }
      ]
    },
    {
      "name":"student/studyProgram",
      "property": "studyProgramId",
      "title": "Students.studyProgramId",
      "hidden": true
    },
    {
      "name":"student/studyProgramSpecialty",
      "property": "studyProgramSpecialtyId",
      "title": "Students.SpecialtyId",
      "hidden": true
    },
    {
      "name":"student/studentIdentifier",
      "property": "studentIdentifier",
      "title":"Students.studentIdentifier"
    },
    {
      "name":"student/person/familyName",
      "property": "familyName",
      "title":"Students.fullName",
      "formatter": "TemplateFormatter",
      "formatString": "${familyName} ${givenName}"
    },
    {
      "name":"student/person/givenName",
      "property": "givenName",
      "title":"Students.GivenName",
      "hidden": true
    },
    {
      "name":"student/department/name",
      "property": "departmentName",
      "title":"Students.Department",
      "hidden": true
    },
    {
      "name":"student/studyProgram/abbreviation",
      "property": "studyProgram",
      "title":"Students.studyProgram"
    },
    {
      "name":"student/studyProgramSpecialty/abbreviation",
      "property": "studyProgramSpecialty",
      "title":"Students.Specialty"
    },
    {
      "name":"student/semester",
      "property": "semester",
      "title":"Students.semester"
    },
    {
      "name":"declaredDate",
      "property": "declaredDate",
      "title":"Students.DeclaredDate",
      "formatter": "DateTimeFormatter",
      "formatString": "shortDate"
    },
    {
      "name":"declaredYear/alternateName",
      "property": "declaredYear",
      "title":"Students.AcademicYear"
    },
    {
      "name":"declaredPeriod/alternateName",
      "property": "declaredPeriod",
      "title":"Students.AcademicPeriod",
      "formatter": "TranslationFormatter",
      "formatString": "Periods.${value}"
    },
    {
      "name":"graduationGradeAdjusted",
      "property": "graduationGradeAdjusted",
      "title":"Students.GraduationGrade",
      "formatters": [
        {
          "formatter": "TemplateFormatter",
          "formatString": "${graduationGradeAdjusted != null ? graduationGradeAdjusted : '-'}"
        },
        {
          "formatter": "NgClassFormatter",
          "formatOptions": {
            "ngClass": {
              "text-success font-lg": "true"
            }
          }
        }
      ]
    },
    {
      "name":"student/studentStatus/alternateName",
      "property": "studentStatus",
      "title":"Students.studentStatus",
      "hidden": true
    },
    {
      "name": "student/user",
      "property": "user",
      "hidden": true
    }
  ],
  "criteria": [
    {
      "name": "studentIdentifier",
      "filter": "(student/studentIdentifier eq '${value}')",
      "type": "text"
    },
    {
      "name": "studentName",
      "filter": "(indexof(student/person/familyName, '${value}') ge 0 or indexof(student/person/givenName, '${value}') ge 0)",
      "type": "text"
    },
    {
      "name": "username",
      "filter": "(indexof(student/user/name, '${value}') ge 0)",
      "type": "text"
    },
    {
      "name": "studyProgram",
      "filter": "(student/studyProgram eq ${value})",
      "type": "text"
    },
    {
      "name": "studyProgramSpecialty",
      "filter": "(student/studyProgramSpecialty eq '${value.id}')",
      "type": "text"
    },
    {
      "name": "graduationTitle",
      "filter": "(indexof(student/graduationTitle, '${value}') ge 0)",
      "type": "text"
    },
    {
      "name": "graduationYear",
      "filter": "(declaredYear/id eq '${value}')",
      "type": "text"
    },
    {
      "name": "graduationPeriod",
      "filter": "(declaredPeriod/id eq '${value}')",
      "type": "text"
    },
    {
      "name": "semester",
      "filter": "(student/semester eq '${value}')",
      "type": "text"
    },
    {
      "name": "hasUser",
      "filter": "${value >=1 ? '(student/user ne null)': '(student/user eq null)'}",
      "type": "text"
    }
  ],
  "defaults":{
    "filter": "(student/department eq '${currentDepartment}' and student/studentStatus/alternateName eq 'declared')"
  },
  "paths" : [
    {
      "name": "Students.All",
      "show": true,
      "alternateName": "list",
      "filter": {
      }
    },
    {
      "name": "Students.Active",
      "alternateName": "active",
      "show": true,
      "filter": {
        "status": "active"
      }
    },
    {
      "name": "Students.FirstYear",
      "alternateName": "first-year",
      "filter": {
        "firstYearStudents": true
      }
    },
    {
      "name": "Students.Candidates",
      "alternateName": "candidates",
      "filter": {
        "status": "candidate"
      }
    },
    {
      "name": "Students.Declared",
      "alternateName": "declared",
      "filter": {
        "status": "declared"
      }
    },
    {
      "name": "Students.Graduated",
      "alternateName": "graduated",
      "filter": {
        "status": "graduated"
      }
    },
    {
      "name": "Students.Suspended",
      "alternateName": "suspended",
      "filter": {
        "status": "suspended"
      }
    },
    {
      "name": "Students.Removed",
      "alternateName": "removed",
      "filter": {
        "status": "erased"
      }
    }
  ]
}
