{
  "model": "CourseTypes",

  "components": [{
      "label": "Tabs",
      "type": "tabs",
      "key": "tabs1",
      "path": "tabs1",
      "input": false,

      "components": [{
          "label": "General Information",

          "components": [{
            "type": "fieldset",
            "legend": "Course Type",
            "components": [{
              "columns": [{
                  "components": [{
                    "label": "ID",
                    "labelPosition": "top",
                    "widget": {
                      "type": "input"
                    },
                    "validate": {
                      "required": true
                    },
                    "key": "id",
                    "type": "textfield",
                    "input": true,
                    "disabled": true
                  }],
                  "width": 6
                },
                {
                  "components": [{
                    "label": "Name",
                    "labelPosition": "top",
                    "widget": {
                      "type": "input"
                    },
                    "validate": {
                      "required": true
                    },
                    "key": "name",
                    "type": "textfield",
                    "input": true
                  }],
                  "width": 6
                },
                {
                  "components": [{
                    "label": "Abbreviation",
                    "labelPosition": "top",
                    "widget": {
                      "type": "input"
                    },
                    "validate": {
                      "required": true
                    },
                    "key": "abbreviation",
                    "type": "textfield",
                    "input": true
                  }],
                  "width": 12
                }
              ],
              "customClass": "text-dark",
              "hideLabel": true,
              "type": "columns",
              "input": false
            }]
          }]
        },
        {
          "legend": "Other languages",
          "key": "fieldSet",
          "type": "fieldset",
          "input": false,
          "label": "Other languages",

          "components": [{
            "label": "",
            "hideLabel": true,
            "key": "locales",
            "type": "datagrid",
            "disableAddingRemovingRows": true,
            "input": true,
            "customClass": "fix-panel-for-locales",
            "components": [{
              "collapsible": false,
              "hideLabel": true,
              "key": "panel",
              "type": "panel",
              "title": "",
              "hideTitle": true,
              "input": false,
              "tableView": false,
              "components": [{
                  "label": "Language",
                  "tableView": true,
                  "key": "inLanguage",
                  "disabled": "true",
                  "type": "textfield",
                  "input": true
                },
                {
                  "label": "Name",
                  "tableView": true,
                  "key": "name",
                  "type": "textfield",
                  "input": true
                },
                {
                  "label": "Abbreviation",
                  "tableView": true,
                  "key": "abbreviation",
                  "type": "textfield",
                  "input": true
                }
              ]
            }]
          }]
        }
      ]
    },
    {
      "type": "button",
      "label": "Submit",
      "key": "submit",
      "disableOnInvalid": true,
      "input": true
    }
  ]
}